﻿{
  "openapi": "3.0.1",
  "info": {
    "title": "Swagger ApPI",
    "description": "The API for Swagger",
    "version": "v1"
  },
  "paths": {
    "/api/Import": {
      "post": {
        "tags": [
          "Import"
        ],
        "summary": "Imports a csv file and saves the rooms including the people.",
        "operationId": "Import",
        "requestBody": {
          "content": {
            "multipart/form-data": {
              "schema": {
                "type": "object",
                "properties": {
                  "importFile": {
                    "type": "string",
                    "description": "A csv file with a Sitzplan with rooms and people in the rooms.",
                    "format": "binary",
                    "nullable": true
                  }
                }
              },
              "encoding": {
                "importFile": {
                  "style": "form"
                }
              }
            }
          }
        },
        "responses": {
          "200": {
            "description": "Success"
          }
        }
      }
    },
    "/api/Room": {
      "get": {
        "tags": [
          "Room"
        ],
        "summary": "Get all rooms including the people in the rooms from the Sitzplan.",
        "operationId": "RoomAll",
        "responses": {
          "200": {
            "description": "Success",
            "content": {
              "text/plain": {
                "schema": {
                  "type": "array",
                  "items": {
                    "$ref": "#/components/schemas/RoomDto"
                  }
                }
              },
              "application/json": {
                "schema": {
                  "type": "array",
                  "items": {
                    "$ref": "#/components/schemas/RoomDto"
                  }
                }
              },
              "text/json": {
                "schema": {
                  "type": "array",
                  "items": {
                    "$ref": "#/components/schemas/RoomDto"
                  }
                }
              }
            }
          }
        }
      }
    },
    "/api/Room/{number}": {
      "get": {
        "tags": [
          "Room"
        ],
        "summary": "Get one room including the people in the room from the Sitzplan.",
        "operationId": "Room",
        "parameters": [
          {
            "name": "number",
            "in": "path",
            "required": true,
            "description": "the room number",
            "schema": {
              "type": "string",
              "description": "the room number",
              "nullable": true
            }
          }
        ],
        "responses": {
          "200": {
            "description": "Success",
            "content": {
              "text/plain": {
                "schema": {
                  "$ref": "#/components/schemas/RoomDto"
                }
              },
              "application/json": {
                "schema": {
                  "$ref": "#/components/schemas/RoomDto"
                }
              },
              "text/json": {
                "schema": {
                  "$ref": "#/components/schemas/RoomDto"
                }
              }
            }
          }
        }
      }
    }
  },
  "components": {
    "schemas": {
      "PersonDto": {
        "type": "object",
        "additionalProperties": false,
        "properties": {
          "first name": {
            "type": "string",
            "nullable": true
          },
          "last name": {
            "type": "string",
            "nullable": true
          },
          "title": {
            "type": "string",
            "nullable": true
          },
          "name addition": {
            "type": "string",
            "nullable": true
          },
          "ldapuser": {
            "type": "string",
            "nullable": true
          }
        }
      },
      "RoomDto": {
        "type": "object",
        "additionalProperties": false,
        "properties": {
          "room": {
            "type": "string",
            "nullable": true
          },
          "people": {
            "type": "array",
            "nullable": true,
            "items": {
              "$ref": "#/components/schemas/PersonDto"
            }
          }
        }
      }
    }
  }
}