{
	"info": {
		"_postman_id": "d99b4917-e09a-46a6-b3a5-c9a0dec92a57",
		"name": "sitzplan",
		"schema": "https://schema.getpostman.com/json/collection/v2.1.0/collection.json"
	},
	"item": [
		{
			"name": "get Room",
			"request": {
				"method": "GET",
				"header": [],
				"body": {},
				"url": {
					"raw": "https://localhost:5001/api/room/Abcd",
					"protocol": "https",
					"host": [
						"localhost"
					],
					"port": "5001",
					"path": [
						"api",
						"room",
						"Abcd"
					]
				}
			},
			"response": []
		},
		{
			"name": "get all Rooms",
			"request": {
				"method": "GET",
				"header": [],
				"body": {},
				"url": {
					"raw": "https://localhost:5001/api/room",
					"protocol": "https",
					"host": [
						"localhost"
					],
					"port": "5001",
					"path": [
						"api",
						"room"
					]
				}
			},
			"response": []
		},
		{
			"name": "import rooms",
			"request": {
				"method": "POST",
				"header": [
					{
						"key": "Content-Type",
						"value": "application/x-www-form-urlencoded"
					}
				],
				"body": {
					"mode": "formdata",
					"formdata": [
						{
							"key": "importFile",
							"description": "",
							"type": "file"
						}
					]
				},
				"url": {
					"raw": "https://localhost:5001/api/import",
					"protocol": "https",
					"host": [
						"localhost"
					],
					"port": "5001",
					"path": [
						"api",
						"import"
					]
				}
			},
			"response": []
		}
	]
}